# Blender v2.83.17 OBJ File: 'Compass.blend'
# www.blender.org
mtllib Compass.mtl
o Cube
v -0.006713 -0.008103 0.500000
v -0.080757 0.008104 0.209439
v -0.006713 -0.008103 -0.500000
v -0.006713 0.008103 -0.500000
v 0.006713 -0.008103 0.500000
v 0.080757 0.008103 0.209439
v 0.006713 -0.008103 -0.500000
v 0.006713 0.008103 -0.500000
v -0.134128 -0.008103 0.000000
v -0.080757 0.008104 0.047926
v 0.134128 -0.008103 0.000000
v 0.080757 0.008103 0.047926
v 0.134128 0.008103 0.000000
v 0.006713 0.008103 0.500000
v -0.006713 0.008103 0.500000
v -0.134128 0.008103 0.000000
v 0.000000 -0.021202 -0.014647
v 0.000000 0.021202 -0.014647
v 0.005605 -0.021202 -0.013532
v 0.005605 0.021202 -0.013532
v 0.010357 -0.021202 -0.010357
v 0.010357 0.021202 -0.010357
v 0.013532 -0.021202 -0.005605
v 0.013532 0.021202 -0.005605
v 0.014647 -0.021202 0.000000
v 0.014647 0.021202 0.000000
v 0.013532 -0.021202 0.005605
v 0.013532 0.021202 0.005605
v 0.010357 -0.021202 0.010357
v 0.010357 0.021202 0.010357
v 0.005605 -0.021202 0.013532
v 0.005605 0.021202 0.013532
v 0.000000 -0.021202 0.014647
v 0.000000 0.021202 0.014647
v -0.005605 -0.021202 0.013532
v -0.005605 0.021202 0.013532
v -0.010357 -0.021202 0.010357
v -0.010357 0.021202 0.010357
v -0.013532 -0.021202 0.005605
v -0.013532 0.021202 0.005605
v -0.014647 -0.021202 0.000000
v -0.014647 0.021202 0.000000
v -0.013532 -0.021202 -0.005605
v -0.013532 0.021202 -0.005605
v -0.010357 -0.021202 -0.010357
v -0.010357 0.021202 -0.010357
v -0.005605 -0.021202 -0.013532
v -0.005605 0.021202 -0.013532
v 0.000000 -0.021202 -0.021202
v 0.008114 -0.021202 -0.019588
v 0.008114 0.021202 -0.019588
v 0.000000 0.021202 -0.021202
v 0.014992 -0.021202 -0.014992
v 0.014992 0.021202 -0.014992
v 0.019588 -0.021202 -0.008114
v 0.019588 0.021202 -0.008114
v 0.021202 -0.021202 0.000000
v 0.021202 0.021202 0.000000
v 0.019588 -0.021202 0.008114
v 0.019588 0.021202 0.008114
v 0.014992 -0.021202 0.014992
v 0.014992 0.021202 0.014992
v 0.008114 -0.021202 0.019588
v 0.008114 0.021202 0.019588
v 0.000000 -0.021202 0.021202
v 0.000000 0.021202 0.021202
v -0.008113 -0.021202 0.019588
v -0.008113 0.021202 0.019588
v -0.014992 -0.021202 0.014992
v -0.014992 0.021202 0.014992
v -0.019588 -0.021202 0.008114
v -0.019588 0.021202 0.008114
v -0.021202 -0.021202 0.000000
v -0.021202 0.021202 0.000000
v -0.019588 -0.021202 -0.008114
v -0.019588 0.021202 -0.008114
v -0.014992 -0.021202 -0.014992
v -0.014992 0.021202 -0.014992
v -0.008113 -0.021202 -0.019588
v -0.008113 0.021202 -0.019588
v 0.000000 0.016682 -0.021202
v 0.008114 0.016682 -0.019588
v 0.014992 0.016682 -0.014992
v 0.019588 0.016682 -0.008114
v 0.021202 0.016682 0.000000
v 0.019588 0.016682 0.008114
v 0.014992 0.016682 0.014992
v 0.008114 0.016682 0.019588
v 0.000000 0.016682 0.021202
v -0.008113 0.016682 0.019588
v -0.014992 0.016682 0.014992
v -0.019588 0.016682 0.008114
v -0.021202 0.016682 0.000000
v -0.019588 0.016682 -0.008114
v -0.014992 0.016682 -0.014992
v -0.008113 0.016682 -0.019588
v 0.008114 -0.017568 -0.019588
v 0.014992 -0.017568 -0.014992
v 0.019588 -0.017568 -0.008114
v 0.021202 -0.017568 0.000000
v 0.019588 -0.017568 0.008114
v 0.014992 -0.017568 0.014992
v 0.008114 -0.017568 0.019588
v 0.000000 -0.017568 0.021202
v -0.008113 -0.017568 0.019588
v -0.014992 -0.017568 0.014992
v -0.019588 -0.017568 0.008114
v -0.021202 -0.017568 0.000000
v -0.019588 -0.017568 -0.008114
v -0.014992 -0.017568 -0.014992
v -0.008113 -0.017568 -0.019588
v 0.000000 -0.017568 -0.021202
vt 0.875000 0.125000
vt 0.875000 0.125000
vt 0.875000 0.125000
vt 0.875000 0.125000
vt 0.875000 0.125000
vt 0.875000 0.125000
vt 0.250000 0.125000
vt 0.250000 0.125000
vt 0.250000 0.125000
vt 0.250000 0.125000
vt 0.250000 0.125000
vt 0.250000 0.125000
vt 0.250000 0.125000
vt 0.213040 0.296826
vt 0.846664 0.296826
vt 0.846664 0.953883
vt 0.213040 0.953883
vt 0.875000 0.125000
vt 0.875000 0.125000
vt 0.250000 0.125000
vt 0.250000 0.125000
vt 0.250000 0.125000
vt 0.250000 0.125000
vt 0.250000 0.125000
vt 0.625000 0.125000
vt 0.625000 0.125000
vt 0.625000 0.125000
vt 0.625000 0.125000
vt 0.625000 0.125000
vt 0.625000 0.125000
vt 0.625000 0.125000
vt 0.625000 0.125000
vt 0.625000 0.125000
vt 0.625000 0.125000
vt 0.625000 0.125000
vt 0.625000 0.125000
vt 0.625000 0.125000
vt 0.625000 0.125000
vt 0.625000 0.125000
vt 0.625000 0.125000
vt 0.625000 0.125000
vt 0.625000 0.125000
vt 0.625000 0.125000
vt 0.625000 0.125000
vt 0.625000 0.125000
vt 0.625000 0.125000
vt 0.625000 0.125000
vt 0.625000 0.125000
vt 0.625000 0.125000
vt 0.625000 0.125000
vt 0.625000 0.125000
vt 0.625000 0.125000
vt 0.625000 0.125000
vt 0.625000 0.125000
vt 0.625000 0.125000
vt 0.625000 0.125000
vt 0.625000 0.125000
vt 0.625000 0.125000
vt 0.625000 0.125000
vt 0.625000 0.125000
vt 0.625000 0.125000
vt 0.625000 0.125000
vt 0.625000 0.125000
vt 0.625000 0.125000
vt 0.625000 0.125000
vt 0.625000 0.125000
vt 0.625000 0.125000
vt 0.625000 0.125000
vt 0.625000 0.125000
vt 0.625000 0.125000
vt 0.625000 0.125000
vt 0.625000 0.125000
vt 0.625000 0.125000
vt 0.625000 0.125000
vt 0.625000 0.125000
vt 0.625000 0.125000
vt 0.625000 0.125000
vt 0.625000 0.125000
vt 0.625000 0.125000
vt 0.625000 0.125000
vt 0.625000 0.125000
vt 0.625000 0.125000
vt 0.625000 0.125000
vt 0.625000 0.125000
vt 0.625000 0.125000
vt 0.625000 0.125000
vt 0.625000 0.125000
vt 0.625000 0.125000
vt 0.625000 0.125000
vt 0.625000 0.125000
vt 0.625000 0.125000
vt 0.625000 0.125000
vt 0.625000 0.125000
vt 0.625000 0.125000
vt 0.625000 0.125000
vt 0.625000 0.125000
vt 0.625000 0.125000
vt 0.625000 0.125000
vt 0.625000 0.125000
vt 0.625000 0.125000
vt 0.625000 0.125000
vt 0.625000 0.125000
vt 0.625000 0.125000
vt 0.625000 0.125000
vt 0.625000 0.125000
vt 0.625000 0.125000
vt 0.625000 0.125000
vt 0.625000 0.125000
vt 0.625000 0.125000
vt 0.625000 0.125000
vt 0.625000 0.125000
vt 0.625000 0.125000
vt 0.625000 0.125000
vt 0.625000 0.125000
vt 0.625000 0.125000
vt 0.625000 0.125000
vt 0.625000 0.125000
vt 0.625000 0.125000
vt 0.625000 0.125000
vt 0.625000 0.125000
vn -0.9690 0.0000 -0.2469
vn 0.0000 0.0000 -1.0000
vn 0.9690 0.0000 0.2469
vn 0.0000 0.0000 1.0000
vn 0.0000 -1.0000 0.0000
vn 0.0000 1.0000 0.0000
vn 0.9690 0.0000 -0.2469
vn -0.9690 0.0000 0.2469
vn 0.0000 0.6657 -0.7462
vn 0.2855 0.6657 -0.6894
vn 0.3827 0.0000 -0.9239
vn 0.5276 0.6657 -0.5276
vn 0.7071 0.0000 -0.7071
vn 0.6894 0.6657 -0.2855
vn 0.9239 0.0000 -0.3827
vn 0.7462 0.6657 0.0000
vn 1.0000 0.0000 0.0000
vn 0.6894 0.6657 0.2855
vn 0.9239 0.0000 0.3827
vn 0.5276 0.6657 0.5276
vn 0.7071 0.0000 0.7071
vn 0.2855 0.6657 0.6894
vn 0.3827 0.0000 0.9239
vn 0.0000 0.6657 0.7462
vn -0.2855 0.6657 0.6894
vn -0.3827 0.0000 0.9239
vn -0.5276 0.6657 0.5276
vn -0.7071 0.0000 0.7071
vn -0.6894 0.6657 0.2855
vn -0.9239 0.0000 0.3827
vn -0.7462 0.6657 0.0000
vn -1.0000 0.0000 0.0000
vn -0.6894 0.6657 -0.2855
vn -0.9239 0.0000 -0.3827
vn -0.5276 0.6657 -0.5276
vn -0.7071 0.0000 -0.7071
vn -0.2855 0.6657 -0.6894
vn -0.3827 0.0000 -0.9239
vn 0.0000 -0.6657 -0.7462
vn 0.2855 -0.6657 -0.6894
vn 0.5276 -0.6657 -0.5276
vn 0.6894 -0.6657 -0.2855
vn 0.7462 -0.6657 0.0000
vn 0.6894 -0.6657 0.2855
vn 0.5276 -0.6657 0.5276
vn 0.2855 -0.6657 0.6894
vn 0.0000 -0.6657 0.7462
vn -0.2855 -0.6657 0.6894
vn -0.5276 -0.6657 0.5276
vn -0.6894 -0.6657 0.2855
vn -0.7462 -0.6657 0.0000
vn -0.6894 -0.6657 -0.2855
vn -0.5276 -0.6657 -0.5276
vn -0.2855 -0.6657 -0.6894
usemtl Compass
s off
f 9/1/1 16/2/1 4/3/1 3/4/1
f 3/4/2 4/3/2 8/5/2 7/6/2
f 13/7/3 14/8/3 5/9/3 11/10/3
f 5/9/4 14/8/4 15/11/4 1/12/4
f 9/13/5 11/10/5 5/9/5 1/12/5
f 12/14/6 10/15/6 2/16/6 6/17/6
f 8/5/6 4/3/6 16/2/6 13/18/6
f 3/4/5 7/6/5 11/19/5 9/1/5
f 7/6/7 8/5/7 13/18/7 11/19/7
f 9/13/8 1/12/8 15/11/8 16/20/8
f 6/21/6 2/22/6 15/11/6 14/8/6
f 12/23/6 6/21/6 13/7/6
f 10/24/6 12/23/6 13/7/6 16/20/6
f 10/24/6 16/20/6 2/22/6
s 1
f 81/25/2 52/26/9 51/27/10 82/28/11
f 82/28/11 51/27/10 54/29/12 83/30/13
f 83/30/13 54/29/12 56/31/14 84/32/15
f 84/32/15 56/31/14 58/33/16 85/34/17
f 85/34/17 58/33/16 60/35/18 86/36/19
f 86/36/19 60/35/18 62/37/20 87/38/21
f 87/38/21 62/37/20 64/39/22 88/40/23
f 88/40/23 64/39/22 66/41/24 89/42/4
f 89/42/4 66/41/24 68/43/25 90/44/26
f 90/44/26 68/43/25 70/45/27 91/46/28
f 91/46/28 70/45/27 72/47/29 92/48/30
f 92/48/30 72/47/29 74/49/31 93/50/32
f 93/50/32 74/49/31 76/51/33 94/52/34
f 94/52/34 76/51/33 78/53/35 95/54/36
f 20/55/6 18/56/6 48/57/6 46/58/6 44/59/6 42/60/6 40/61/6 38/62/6 36/63/6 34/64/6 32/65/6 30/66/6 28/67/6 26/68/6 24/69/6 22/70/6
f 95/54/36 78/53/35 80/71/37 96/72/38
f 96/72/38 80/71/37 52/26/9 81/25/2
f 17/73/5 19/74/5 21/75/5 23/76/5 25/77/5 27/78/5 29/79/5 31/80/5 33/81/5 35/82/5 37/83/5 39/84/5 41/85/5 43/86/5 45/87/5 47/88/5
f 19/74/5 17/73/5 49/89/39 50/90/40
f 18/56/6 20/55/6 51/27/10 52/26/9
f 21/75/5 19/74/5 50/90/40 53/91/41
f 20/55/6 22/70/6 54/29/12 51/27/10
f 23/76/5 21/75/5 53/91/41 55/92/42
f 22/70/6 24/69/6 56/31/14 54/29/12
f 25/77/5 23/76/5 55/92/42 57/93/43
f 24/69/6 26/68/6 58/33/16 56/31/14
f 27/78/5 25/77/5 57/93/43 59/94/44
f 26/68/6 28/67/6 60/35/18 58/33/16
f 29/79/5 27/78/5 59/94/44 61/95/45
f 28/67/6 30/66/6 62/37/20 60/35/18
f 31/80/5 29/79/5 61/95/45 63/96/46
f 30/66/6 32/65/6 64/39/22 62/37/20
f 33/81/5 31/80/5 63/96/46 65/97/47
f 32/65/6 34/64/6 66/41/24 64/39/22
f 35/82/5 33/81/5 65/97/47 67/98/48
f 34/64/6 36/63/6 68/43/25 66/41/24
f 37/83/5 35/82/5 67/98/48 69/99/49
f 36/63/6 38/62/6 70/45/27 68/43/25
f 39/84/5 37/83/5 69/99/49 71/100/50
f 38/62/6 40/61/6 72/47/29 70/45/27
f 41/85/5 39/84/5 71/100/50 73/101/51
f 40/61/6 42/60/6 74/49/31 72/47/29
f 43/86/5 41/85/5 73/101/51 75/102/52
f 42/60/6 44/59/6 76/51/33 74/49/31
f 45/87/5 43/86/5 75/102/52 77/103/53
f 44/59/6 46/58/6 78/53/35 76/51/33
f 47/88/5 45/87/5 77/103/53 79/104/54
f 46/58/6 48/57/6 80/71/37 78/53/35
f 17/73/5 47/88/5 79/104/54 49/89/39
f 48/57/6 18/56/6 52/26/9 80/71/37
f 111/105/38 96/72/38 81/25/2 112/106/2
f 110/107/36 95/54/36 96/72/38 111/105/38
f 109/108/34 94/52/34 95/54/36 110/107/36
f 108/109/32 93/50/32 94/52/34 109/108/34
f 107/110/30 92/48/30 93/50/32 108/109/32
f 106/111/28 91/46/28 92/48/30 107/110/30
f 105/112/26 90/44/26 91/46/28 106/111/28
f 104/113/4 89/42/4 90/44/26 105/112/26
f 103/114/23 88/40/23 89/42/4 104/113/4
f 102/115/21 87/38/21 88/40/23 103/114/23
f 101/116/19 86/36/19 87/38/21 102/115/21
f 100/117/17 85/34/17 86/36/19 101/116/19
f 99/118/15 84/32/15 85/34/17 100/117/17
f 98/119/13 83/30/13 84/32/15 99/118/15
f 97/120/11 82/28/11 83/30/13 98/119/13
f 112/106/2 81/25/2 82/28/11 97/120/11
f 49/89/39 112/106/2 97/120/11 50/90/40
f 50/90/40 97/120/11 98/119/13 53/91/41
f 53/91/41 98/119/13 99/118/15 55/92/42
f 55/92/42 99/118/15 100/117/17 57/93/43
f 57/93/43 100/117/17 101/116/19 59/94/44
f 59/94/44 101/116/19 102/115/21 61/95/45
f 61/95/45 102/115/21 103/114/23 63/96/46
f 63/96/46 103/114/23 104/113/4 65/97/47
f 65/97/47 104/113/4 105/112/26 67/98/48
f 67/98/48 105/112/26 106/111/28 69/99/49
f 69/99/49 106/111/28 107/110/30 71/100/50
f 71/100/50 107/110/30 108/109/32 73/101/51
f 73/101/51 108/109/32 109/108/34 75/102/52
f 75/102/52 109/108/34 110/107/36 77/103/53
f 77/103/53 110/107/36 111/105/38 79/104/54
f 79/104/54 111/105/38 112/106/2 49/89/39
