<?xml version="1.0" encoding="UTF-8" standalone="no"?>
<svg
   xmlns:dc="http://purl.org/dc/elements/1.1/"
   xmlns:cc="http://creativecommons.org/ns#"
   xmlns:rdf="http://www.w3.org/1999/02/22-rdf-syntax-ns#"
   xmlns:svg="http://www.w3.org/2000/svg"
   xmlns="http://www.w3.org/2000/svg"
   xmlns:sodipodi="http://sodipodi.sourceforge.net/DTD/sodipodi-0.dtd"
   xmlns:inkscape="http://www.inkscape.org/namespaces/inkscape"
   inkscape:export-ydpi="96"
   inkscape:export-xdpi="96"
   inkscape:export-filename="../icon_turbine.png"
   width="128"
   height="128"
   viewBox="0 0 33.866666 33.866666"
   version="1.1"
   id="svg8"
   inkscape:version="1.0 (4035a4f, 2020-05-01)"
   sodipodi:docname="icon_turbine.svg">
  <defs
     id="defs2" />
  <sodipodi:namedview
     id="base"
     pagecolor="#ffffff"
     bordercolor="#666666"
     borderopacity="1.0"
     inkscape:pageopacity="0.0"
     inkscape:pageshadow="2"
     inkscape:zoom="3.959798"
     inkscape:cx="64.877169"
     inkscape:cy="47.438287"
     inkscape:document-units="mm"
     inkscape:current-layer="layer2"
     inkscape:document-rotation="0"
     showgrid="false"
     units="px"
     inkscape:window-width="1322"
     inkscape:window-height="744"
     inkscape:window-x="44"
     inkscape:window-y="24"
     inkscape:window-maximized="1" />
  <metadata
     id="metadata5">
    <rdf:RDF>
      <cc:Work
         rdf:about="">
        <dc:format>image/svg+xml</dc:format>
        <dc:type
           rdf:resource="http://purl.org/dc/dcmitype/StillImage" />
        <dc:title />
      </cc:Work>
    </rdf:RDF>
  </metadata>
  <g
     style="display:none"
     inkscape:groupmode="layer"
     id="layer2"
     inkscape:label="Swoosh">
    <path
       inkscape:transform-center-y="-2.4478341"
       inkscape:transform-center-x="-0.58520206"
       sodipodi:nodetypes="cc"
       d="m 26.965426,12.961123 c 0.06241,1.696127 -0.362368,3.378938 -1.229847,4.872223"
       style="display:inline;opacity:0.25;fill:none;fill-opacity:1;stroke:#000000;stroke-width:0.375;stroke-linecap:round;stroke-linejoin:round;stroke-miterlimit:4;stroke-dasharray:none"
       id="path851" />
    <path
       id="path851-3"
       style="display:inline;opacity:0.25;fill:none;fill-opacity:1;stroke:#000000;stroke-width:0.374999;stroke-linecap:round;stroke-linejoin:round;stroke-miterlimit:4;stroke-dasharray:none"
       d="m 12.028093,4.2184505 c 1.460244,-0.865117 3.141533,-1.29588 4.867814,-1.2471828"
       sodipodi:nodetypes="cc" />
    <path
       inkscape:transform-center-y="1.836557"
       inkscape:transform-center-x="-1.7745496"
       sodipodi:nodetypes="cc"
       d="M 11.644126,21.546749 C 10.173963,20.698598 8.9738858,19.444762 8.1695556,17.916537"
       style="display:inline;opacity:0.25;fill:none;fill-opacity:1;stroke:#000000;stroke-width:0.374999;stroke-linecap:round;stroke-linejoin:round;stroke-miterlimit:4;stroke-dasharray:none"
       id="path851-3-6" />
  </g>
  <g
     style="display:inline"
     inkscape:label="Layer 1"
     id="layer1"
     inkscape:groupmode="layer">
    <path
       sodipodi:nodetypes="cccc"
       d="m 16.933333,13.337605 0.79375,18.831107 h -1.5875 z"
       inkscape:transform-center-y="3.8920088"
       inkscape:transform-center-x="-0.53509013"
       style="opacity:0.999;fill:#000000;fill-opacity:1;stroke:#000000;stroke-width:1.17475;stroke-linecap:round;stroke-linejoin:round;stroke-miterlimit:4;stroke-dasharray:none"
       id="path840" />
    <path
       sodipodi:nodetypes="ccccccc"
       d="M 25.530969,17.711593 16.933333,12.808438 8.3356978,17.725385 16.69071,12.389198 16.933333,3.2077788 17.175956,12.388785 Z"
       inkscape:transform-center-y="-1.7216517"
       inkscape:transform-center-x="-0.88793969"
       style="opacity:0.999;fill:#000000;fill-opacity:1;stroke:#000000;stroke-width:0.847196;stroke-linecap:square;stroke-linejoin:round;stroke-miterlimit:4;stroke-dasharray:none"
       id="path836" />
    <circle
       r="0.9802959"
       cy="12.891673"
       cx="16.933332"
       id="path849"
       style="opacity:0.999;fill:#000000;fill-opacity:1;stroke:#000000;stroke-width:0.751351;stroke-linecap:round;stroke-linejoin:round;stroke-miterlimit:4;stroke-dasharray:none" />
  </g>
</svg>
