<?xml version="1.0" encoding="UTF-8" standalone="no"?>
<svg
   xmlns:dc="http://purl.org/dc/elements/1.1/"
   xmlns:cc="http://creativecommons.org/ns#"
   xmlns:rdf="http://www.w3.org/1999/02/22-rdf-syntax-ns#"
   xmlns:svg="http://www.w3.org/2000/svg"
   xmlns="http://www.w3.org/2000/svg"
   xmlns:sodipodi="http://sodipodi.sourceforge.net/DTD/sodipodi-0.dtd"
   xmlns:inkscape="http://www.inkscape.org/namespaces/inkscape"
   sodipodi:docname="icon_sound_on.svg"
   inkscape:version="1.0 (4035a4f, 2020-05-01)"
   id="svg8"
   version="1.1"
   viewBox="0 0 33.866666 33.866666"
   height="128"
   width="128">
  <defs
     id="defs2" />
  <sodipodi:namedview
     inkscape:window-maximized="1"
     inkscape:window-y="24"
     inkscape:window-x="44"
     inkscape:window-height="744"
     inkscape:window-width="1322"
     units="px"
     showgrid="false"
     inkscape:document-rotation="0"
     inkscape:current-layer="layer2"
     inkscape:document-units="mm"
     inkscape:cy="121.34763"
     inkscape:cx="61.330979"
     inkscape:zoom="1.4"
     inkscape:pageshadow="2"
     inkscape:pageopacity="0.0"
     borderopacity="1.0"
     bordercolor="#666666"
     pagecolor="#ffffff"
     id="base" />
  <metadata
     id="metadata5">
    <rdf:RDF>
      <cc:Work
         rdf:about="">
        <dc:format>image/svg+xml</dc:format>
        <dc:type
           rdf:resource="http://purl.org/dc/dcmitype/StillImage" />
        <dc:title></dc:title>
      </cc:Work>
    </rdf:RDF>
  </metadata>
  <g
     inkscape:label="Layer 1"
     id="layer2"
     inkscape:groupmode="layer">
    <path
       sodipodi:nodetypes="ccccccc"
       id="path848"
       d="M 9.445625,12.528021 19,1.984375 V 31.882292 L 9.445625,21.325417 H 4.7625 V 12.54125 Z"
       style="fill:none;stroke:#000000;stroke-width:1.86;stroke-linecap:round;stroke-linejoin:round;stroke-miterlimit:28.5;stroke-dasharray:none;stroke-opacity:1" />
    <path
       sodipodi:nodetypes="csc"
       d="m 21.919676,10.769655 c 2.195834,0.833348 3.67294,3.26978 3.672928,6.058361 -1.2e-5,2.78858 -1.477142,5.309721 -3.672982,6.268995"
       style="fill:none;stroke:#000000;stroke-width:1.86;stroke-linecap:round;stroke-linejoin:round;stroke-miterlimit:28.5;stroke-dasharray:none;stroke-opacity:1"
       id="path850" />
    <path
       id="path850-3"
       style="fill:none;stroke:#000000;stroke-width:1.86;stroke-linecap:round;stroke-linejoin:round;stroke-miterlimit:28.5;stroke-dasharray:none;stroke-opacity:1"
       d="m 21.966054,4.0025722 c 4.983616,1.7482779 8.336023,6.8596618 8.335995,12.7098158 -2.9e-5,5.850153 -3.352488,11.139247 -8.336118,13.151706"
       sodipodi:nodetypes="csc" />
  </g>
</svg>
